boto3==1.10.19
botocore==1.13.19
Click==7.0
colorama==0.4.1
docutils==0.15.2
Flask==1.1.1
Flask-Cors==3.0.8
Flask-MySQLdb==0.2.0
itsdangerous==1.1.0
Jinja2==2.10.3
jmespath==0.9.4
MarkupSafe==1.1.1
mysqlclient==1.4.5
pyasn1==0.4.7
python-dateutil==2.8.0
PyYAML==5.1.2
rsa==3.4.2
s3transfer==0.2.1
six==1.13.0
urllib3==1.25.7
Werkzeug==0.16.0
